{
  "host": "0.0.0.0",
  "port": 8722,
  "mongodb": {
    "uri": "mongodb://way2pay:way2pay2k18@49.156.147.105:27017/way2pay",
    "Way2PayDBUri": "mongodb://way2pay:way2pay2k18@49.156.147.105:27017/way2pay"
  },
  "smsdb": {
    "hostname": "172.16.20.188",
    "username": "root",
    "password": "root",
    "database": "way2sms"
  }
}